##################
l            d   r
l                r
l                r
l                r
l               ar
l         ###z###r
l           ###  r
l                r
l##dz##zd##      r
l  ##  ##   #   dr
l               #r
l d              r
l##              r
l    d       ####r
l   ##           r
l        d       r
l      #####     r
l                r
l                r
l         ###z###r
l       #   ###  r
l                r
l##z###          r
l ###            r
l                r
l      #####     r
l                r
l    z           r
l  #####         r
l  d             r
l         @     dr
##################